Logistic Regression
…
Model evaluation & diagnostics: How well does the model fit the data? Which predictors are most important? Are the predictions accurate?

Replication Requirements

This tutorial primarily leverages the Default data provided by the ISLR package. This is a simulated data set containing information on ten thousand customers such as whether the customer defaulted, is a student, the average balance carried by the customer and the income of the customer. Well also use a few packages that provide data manipulation, visualization, pipeline modeling functions, and model output tidying functions.

# Packages
library(tidyverse)  # data manipulation and visualization
library(modelr)     # provides easy pipeline modeling functions
library(broom)      # helps to tidy up model outputs

# Load data 
(default <- as_tibble(ISLR::Default))

# A tibble: 10,000 x 4
   default student balance income
   <fct>   <fct>     <dbl>  <dbl>
 1 No      No         730. 44362.
 2 No      Yes        817. 12106.
 3 No      No        1074. 31767.
 4 No      No         529. 35704.
 5 No      No         786. 38463.
 6 No      Yes        920.  7492.
 7 No      No         826. 24905.
 8 No      Yes        809. 17600.
 9 No      No        1161. 37469.
10 No      No           0  29275.
# ... with 9,990 more rows
…
